covid19
…
## See spec(...) for full column specifications.

county_pm %>%
  count(fips)

## # A tibble: 3,176 x 2
##     fips     n
##    <int> <int>
##  1  1001    17
##  2  1003    17
##  3  1005    17
##  4  1007    17
##  5  1009    17
##  6  1011    17
##  7  1013    17
##  8  1015    17
##  9  1017    17
## 10  1019    17
## # ... with 3,166 more rows
…
